Adding LIBD modules
Loading git
Loading LIBD module for git-status-size/github
Loading LIBD module for git-lfs/2.8.0
Loading LIBD module for rmate/1.5.9
Loading LIBD module for ruby/2.6.4p104
Loading conda_R/4.1.x
**** Job starts ****
Thu Sep 21 09:21:30 EDT 2023
**** JHPCE info ****
User: mtippani
Job id: 3729341
Job name: RCTDprepare_data_HE
Hostname: compute-102.cm.cluster
Task id: 6
Unloading conda_R/4.1.x
Loading conda_R/devel

The following have been reloaded with a version change:
  1) conda_R/4.1.x => conda_R/devel

[1] "V11L05-333_B1"
Begin: process_cell_type_info
process_cell_type_info: number of cells in reference: 68528
process_cell_type_info: number of genes in reference: 36601

        Astro      CA1_ProS         CA2-4         Cajal       Choroid 
         4298          4493          5319            40          3166 
       Ependy      GABA.CGE    GABA.LAMP5      GABA.MGE            GC 
          421          2573          3547          3776         10000 
 L2_3.Prs.Ent  L2_3.PrS.PaS            L5         L6_6b Micro_Macro_T 
         4899          2729          2059          3756          3940 
        Oligo           OPC         Sub.1         Sub.2          Thal 
         6787          1662           994           897            35 
     Vascular 
         3137 
End: process_cell_type_info
create.RCTD: getting regression differentially expressed genes: 
get_de_genes: Astro found DE genes: 358
get_de_genes: CA1_ProS found DE genes: 128
get_de_genes: CA2-4 found DE genes: 127
get_de_genes: Cajal found DE genes: 218
get_de_genes: Choroid found DE genes: 415
get_de_genes: Ependy found DE genes: 449
get_de_genes: GABA.CGE found DE genes: 102
get_de_genes: GABA.LAMP5 found DE genes: 148
get_de_genes: GABA.MGE found DE genes: 108
get_de_genes: GC found DE genes: 163
get_de_genes: L2_3.Prs.Ent found DE genes: 72
get_de_genes: L2_3.PrS.PaS found DE genes: 100
get_de_genes: L5 found DE genes: 73
get_de_genes: L6_6b found DE genes: 118
get_de_genes: Micro_Macro_T found DE genes: 520
get_de_genes: Oligo found DE genes: 473
get_de_genes: OPC found DE genes: 246
get_de_genes: Sub.1 found DE genes: 137
get_de_genes: Sub.2 found DE genes: 150
get_de_genes: Thal found DE genes: 236
get_de_genes: Vascular found DE genes: 448
get_de_genes: total DE genes: 2880
create.RCTD: getting platform effect normalization differentially expressed genes: 
get_de_genes: Astro found DE genes: 644
get_de_genes: CA1_ProS found DE genes: 333
get_de_genes: CA2-4 found DE genes: 303
get_de_genes: Cajal found DE genes: 476
get_de_genes: Choroid found DE genes: 770
get_de_genes: Ependy found DE genes: 838
get_de_genes: GABA.CGE found DE genes: 251
get_de_genes: GABA.LAMP5 found DE genes: 293
get_de_genes: GABA.MGE found DE genes: 260
get_de_genes: GC found DE genes: 354
get_de_genes: L2_3.Prs.Ent found DE genes: 245
get_de_genes: L2_3.PrS.PaS found DE genes: 330
get_de_genes: L5 found DE genes: 242
get_de_genes: L6_6b found DE genes: 292
get_de_genes: Micro_Macro_T found DE genes: 1027
get_de_genes: Oligo found DE genes: 807
get_de_genes: OPC found DE genes: 506
get_de_genes: Sub.1 found DE genes: 343
get_de_genes: Sub.2 found DE genes: 382
get_de_genes: Thal found DE genes: 546
get_de_genes: Vascular found DE genes: 899
get_de_genes: total DE genes: 4699
Warning messages:
1: In asMethod(object) :
  sparse->dense coercion: allocating vector of size 1.2 GiB
2: In asMethod(object) :
  sparse->dense coercion: allocating vector of size 1.2 GiB
3: In asMethod(object) :
  sparse->dense coercion: allocating vector of size 1.5 GiB
4: In asMethod(object) :
  sparse->dense coercion: allocating vector of size 1.0 GiB
5: In asMethod(object) :
  sparse->dense coercion: allocating vector of size 2.7 GiB
6: In asMethod(object) :
  sparse->dense coercion: allocating vector of size 1.3 GiB
7: In asMethod(object) :
  sparse->dense coercion: allocating vector of size 1.0 GiB
8: In asMethod(object) :
  sparse->dense coercion: allocating vector of size 1.1 GiB
9: In asMethod(object) :
  sparse->dense coercion: allocating vector of size 1.9 GiB
**** Job ends ****
Thu Sep 21 09:38:47 EDT 2023
