Adding LIBD modules
Loading git
Loading LIBD module for git-status-size/github
Loading LIBD module for git-lfs/2.8.0
Loading LIBD module for rmate/1.5.9
Loading LIBD module for ruby/2.6.4p104
Loading conda_R/4.1.x
**** Job starts ****
Thu Sep 21 09:36:41 EDT 2023
**** JHPCE info ****
User: mtippani
Job id: 3729341
Job name: RCTDprepare_data_HE
Hostname: compute-059.cm.cluster
Task id: 12
Unloading conda_R/4.1.x
Loading conda_R/devel

The following have been reloaded with a version change:
  1) conda_R/4.1.x => conda_R/devel

[1] "V11L05-335_D1"
Begin: process_cell_type_info
process_cell_type_info: number of cells in reference: 68528
process_cell_type_info: number of genes in reference: 36601

        Astro      CA1_ProS         CA2-4         Cajal       Choroid 
         4298          4493          5319            40          3166 
       Ependy      GABA.CGE    GABA.LAMP5      GABA.MGE            GC 
          421          2573          3547          3776         10000 
 L2_3.Prs.Ent  L2_3.PrS.PaS            L5         L6_6b Micro_Macro_T 
         4899          2729          2059          3756          3940 
        Oligo           OPC         Sub.1         Sub.2          Thal 
         6787          1662           994           897            35 
     Vascular 
         3137 
End: process_cell_type_info
create.RCTD: getting regression differentially expressed genes: 
get_de_genes: Astro found DE genes: 352
get_de_genes: CA1_ProS found DE genes: 123
get_de_genes: CA2-4 found DE genes: 124
get_de_genes: Cajal found DE genes: 213
get_de_genes: Choroid found DE genes: 416
get_de_genes: Ependy found DE genes: 445
get_de_genes: GABA.CGE found DE genes: 97
get_de_genes: GABA.LAMP5 found DE genes: 141
get_de_genes: GABA.MGE found DE genes: 104
get_de_genes: GC found DE genes: 161
get_de_genes: L2_3.Prs.Ent found DE genes: 70
get_de_genes: L2_3.PrS.PaS found DE genes: 98
get_de_genes: L5 found DE genes: 68
get_de_genes: L6_6b found DE genes: 113
get_de_genes: Micro_Macro_T found DE genes: 514
get_de_genes: Oligo found DE genes: 469
get_de_genes: OPC found DE genes: 241
get_de_genes: Sub.1 found DE genes: 135
get_de_genes: Sub.2 found DE genes: 144
get_de_genes: Thal found DE genes: 232
get_de_genes: Vascular found DE genes: 447
get_de_genes: total DE genes: 2843
create.RCTD: getting platform effect normalization differentially expressed genes: 
get_de_genes: Astro found DE genes: 636
get_de_genes: CA1_ProS found DE genes: 325
get_de_genes: CA2-4 found DE genes: 296
get_de_genes: Cajal found DE genes: 465
get_de_genes: Choroid found DE genes: 772
get_de_genes: Ependy found DE genes: 830
get_de_genes: GABA.CGE found DE genes: 244
get_de_genes: GABA.LAMP5 found DE genes: 285
get_de_genes: GABA.MGE found DE genes: 249
get_de_genes: GC found DE genes: 348
get_de_genes: L2_3.Prs.Ent found DE genes: 239
get_de_genes: L2_3.PrS.PaS found DE genes: 328
get_de_genes: L5 found DE genes: 234
get_de_genes: L6_6b found DE genes: 280
get_de_genes: Micro_Macro_T found DE genes: 1015
get_de_genes: Oligo found DE genes: 798
get_de_genes: OPC found DE genes: 498
get_de_genes: Sub.1 found DE genes: 337
get_de_genes: Sub.2 found DE genes: 372
get_de_genes: Thal found DE genes: 540
get_de_genes: Vascular found DE genes: 898
get_de_genes: total DE genes: 4639
Warning messages:
1: In asMethod(object) :
  sparse->dense coercion: allocating vector of size 1.2 GiB
2: In asMethod(object) :
  sparse->dense coercion: allocating vector of size 1.2 GiB
3: In asMethod(object) :
  sparse->dense coercion: allocating vector of size 1.5 GiB
4: In asMethod(object) :
  sparse->dense coercion: allocating vector of size 1.0 GiB
5: In asMethod(object) :
  sparse->dense coercion: allocating vector of size 2.7 GiB
6: In asMethod(object) :
  sparse->dense coercion: allocating vector of size 1.3 GiB
7: In asMethod(object) :
  sparse->dense coercion: allocating vector of size 1.0 GiB
8: In asMethod(object) :
  sparse->dense coercion: allocating vector of size 1.1 GiB
9: In asMethod(object) :
  sparse->dense coercion: allocating vector of size 1.9 GiB
**** Job ends ****
Thu Sep 21 09:50:00 EDT 2023
