Adding LIBD modules
Loading git
Loading LIBD module for git-status-size/github
Loading LIBD module for git-lfs/2.8.0
Loading LIBD module for rmate/1.5.9
Loading LIBD module for ruby/2.6.4p104
Loading conda_R/4.1.x
**** Job starts ****
Mon Oct  2 16:29:40 EDT 2023
**** JHPCE info ****
User: mtippani
Job id: 3749014
Job name: runRCTD
Hostname: compute-126.cm.cluster
Task id: 5
Unloading conda_R/4.1.x
Loading conda_R/devel

The following have been reloaded with a version change:
  1) conda_R/4.1.x => conda_R/devel

Warning in .make_numeric_version(x, strict, .standard_regexps()$valid_numeric_version) :
  invalid non-character version specification 'x' (type: double)
Warning message:
replacing previous import ‘utils::findMatches’ by ‘S4Vectors::findMatches’ when loading ‘AnnotationDbi’ 

Attaching package: ‘gridExtra’

The following object is masked from ‘package:Biobase’:

    combine

The following object is masked from ‘package:BiocGenerics’:

    combine

The following object is masked from ‘package:dplyr’:

    combine

Loading required package: viridisLite
fitBulk: decomposing bulk
chooseSigma: using initial Q_mat with sigma =  1
Likelihood value: 1720844.3827253
Sigma value:  0.84
Likelihood value: 1695264.83090923
Sigma value:  0.69
Likelihood value: 1676506.80822947
Sigma value:  0.61
Likelihood value: 1669383.74337002
Sigma value:  0.53
Likelihood value: 1664876.05293693
Sigma value:  0.48
Likelihood value: 1663652.69555285
Sigma value:  0.47
Likelihood value: 1663573.72095736
Sigma value:  0.46
Likelihood value: 1663553.19838265
Sigma value:  0.46
[1] "Examining multi mode all weights results"
[1] "Astro"
[1] "CSF"
[1] "ExcN"
[1] "InhN"
[1] "Micro_Macro_T"
[1] "Oligo"
[1] "OPC"
[1] "Vascular"
[1] "Examining multi mode sub weights results"
fitBulk: decomposing bulk
chooseSigma: using initial Q_mat with sigma =  1
Likelihood value: 1746159.83894636
Sigma value:  0.84
Likelihood value: 1719562.10569974
Sigma value:  0.69
Likelihood value: 1699855.14347245
Sigma value:  0.61
Likelihood value: 1692233.29073843
Sigma value:  0.53
Likelihood value: 1687228.91560378
Sigma value:  0.47
Likelihood value: 1685553.88130307
Sigma value:  0.46
Likelihood value: 1685471.76988083
Sigma value:  0.45
Likelihood value: 1685449.63409026
Sigma value:  0.45
**** Job ends ****
Mon Oct  2 17:20:39 EDT 2023
